[1] 11509
# A tibble: 28 x 5
   agecat  sex    race      N    prop
   <fct>   <fct>  <fct> <int>   <dbl>
 1 Agecat0 Female White   386 0.0335 
 2 Agecat0 Female Black    86 0.00747
 3 Agecat0 Male   White   221 0.0192 
 4 Agecat0 Male   Black    38 0.00330
 5 Agecat1 Female White   817 0.0710 
 6 Agecat1 Female Black   168 0.0146 
 7 Agecat1 Male   White   569 0.0494 
 8 Agecat1 Male   Black    86 0.00747
 9 Agecat2 Female White   815 0.0708 
10 Agecat2 Female Black   154 0.0134 
# ... with 18 more rows
…
